%YAML 1.1
%TAG !u! tag:unity3d.com,2011:
--- !u!114 &11400000
MonoBehaviour:
  m_ObjectHideFlags: 0
  m_CorrespondingSourceObject: {fileID: 0}
  m_PrefabInstance: {fileID: 0}
  m_PrefabAsset: {fileID: 0}
  m_GameObject: {fileID: 0}
  m_Enabled: 1
  m_EditorHideFlags: 0
  m_Script: {fileID: 11500000, guid: 310d60c767bacda40aa81c4bc4fa3690, type: 3}
  m_Name: WallNut
  m_EditorClassIdentifier: 
  Nombre: WallNut
  HP_Max: 7
  AttackingSpeed: 0
  CosteSoles: 30
  Sprites:
  - {fileID: -1008115386, guid: 6534b09b2fe58b34e9024eada9747d9a, type: 3}
  - {fileID: 974287503, guid: 6534b09b2fe58b34e9024eada9747d9a, type: 3}
  - {fileID: -135461902, guid: 6534b09b2fe58b34e9024eada9747d9a, type: 3}
