%YAML 1.1
%TAG !u! tag:unity3d.com,2011:
--- !u!114 &11400000
MonoBehaviour:
  m_ObjectHideFlags: 0
  m_CorrespondingSourceObject: {fileID: 0}
  m_PrefabInstance: {fileID: 0}
  m_PrefabAsset: {fileID: 0}
  m_GameObject: {fileID: 0}
  m_Enabled: 1
  m_EditorHideFlags: 0
  m_Script: {fileID: 11500000, guid: c6f2024342771d44cb1185c96858dc6d, type: 3}
  m_Name: ZombiePetit
  m_EditorClassIdentifier: 
  z_Speed: 0.5
  scale: {x: 0.8, y: 0.8, z: 0.8}
  nom: ZombiePetit
  z_VidaMax: 2
  z_VidaActual: 4
  AtackTime: 2
